%!PS-Adobe-2.0
%%Creator: dvips(k) 5.993 Copyright 2013 Radical Eye Software
%%Title: job-001.dvi
%%CreationDate: Tue May  3 20:13:25 2016
%%Pages: 1
%%PageOrder: Ascend
%%BoundingBox: 156 2640 708 3230
%%EndComments
%DVIPSWebPage: (www.radicaleye.com)
%DVIPSCommandLine: dvips job-001.dvi -o job-001.dvips.ps
%DVIPSParameters: dpi=600
%DVIPSSource:  TeX output 2016.05.03:2013
%%BeginProcSet: tex.pro 0 0
%!
/TeXDict 300 dict def TeXDict begin/N{def}def/B{bind def}N/S{exch}N/X{S
N}B/A{dup}B/TR{translate}N/isls false N/vsize 11 72 mul N/hsize 8.5 72
mul N/landplus90{false}def/@rigin{isls{[0 landplus90{1 -1}{-1 1}ifelse 0
0 0]concat}if 72 Resolution div 72 VResolution div neg scale isls{
landplus90{VResolution 72 div vsize mul 0 exch}{Resolution -72 div hsize
mul 0}ifelse TR}if Resolution VResolution vsize -72 div 1 add mul TR[
matrix currentmatrix{A A round sub abs 0.00001 lt{round}if}forall round
exch round exch]setmatrix}N/@landscape{/isls true N}B/@manualfeed{
statusdict/manualfeed true put}B/@copies{/#copies X}B/FMat[1 0 0 -1 0 0]
N/FBB[0 0 0 0]N/nn 0 N/IEn 0 N/ctr 0 N/df-tail{/nn 8 dict N nn begin
/FontType 3 N/FontMatrix fntrx N/FontBBox FBB N string/base X array
/BitMaps X/BuildChar{CharBuilder}N/Encoding IEn N end A{/foo setfont}2
array copy cvx N load 0 nn put/ctr 0 N[}B/sf 0 N/df{/sf 1 N/fntrx FMat N
df-tail}B/dfs{div/sf X/fntrx[sf 0 0 sf neg 0 0]N df-tail}B/E{pop nn A
definefont setfont}B/Cw{Cd A length 5 sub get}B/Ch{Cd A length 4 sub get
}B/Cx{128 Cd A length 3 sub get sub}B/Cy{Cd A length 2 sub get 127 sub}
B/Cdx{Cd A length 1 sub get}B/Ci{Cd A type/stringtype ne{ctr get/ctr ctr
1 add N}if}B/CharBuilder{save 3 1 roll S A/base get 2 index get S
/BitMaps get S get/Cd X pop/ctr 0 N Cdx 0 Cx Cy Ch sub Cx Cw add Cy
setcachedevice Cw Ch true[1 0 0 -1 -.1 Cx sub Cy .1 sub]{Ci}imagemask
restore}B/D{/cc X A type/stringtype ne{]}if nn/base get cc ctr put nn
/BitMaps get S ctr S sf 1 ne{A A length 1 sub A 2 index S get sf div put
}if put/ctr ctr 1 add N}B/I{cc 1 add D}B/bop{userdict/bop-hook known{
bop-hook}if/SI save N @rigin 0 0 moveto/V matrix currentmatrix A 1 get A
mul exch 0 get A mul add .99 lt{/QV}{/RV}ifelse load def pop pop}N/eop{
SI restore userdict/eop-hook known{eop-hook}if showpage}N/@start{
userdict/start-hook known{start-hook}if pop/VResolution X/Resolution X
1000 div/DVImag X/IEn 256 array N 2 string 0 1 255{IEn S A 360 add 36 4
index cvrs cvn put}for pop 65781.76 div/vsize X 65781.76 div/hsize X}N
/dir 0 def/dyy{/dir 0 def}B/dyt{/dir 1 def}B/dty{/dir 2 def}B/dtt{/dir 3
def}B/p{dir 2 eq{-90 rotate show 90 rotate}{dir 3 eq{-90 rotate show 90
rotate}{show}ifelse}ifelse}N/RMat[1 0 0 -1 0 0]N/BDot 260 string N/Rx 0
N/Ry 0 N/V{}B/RV/v{/Ry X/Rx X V}B statusdict begin/product where{pop
false[(Display)(NeXT)(LaserWriter 16/600)]{A length product length le{A
length product exch 0 exch getinterval eq{pop true exit}if}{pop}ifelse}
forall}{false}ifelse end{{gsave TR -.1 .1 TR 1 1 scale Rx Ry false RMat{
BDot}imagemask grestore}}{{gsave TR -.1 .1 TR Rx Ry scale 1 1 false RMat
{BDot}imagemask grestore}}ifelse B/QV{gsave newpath transform round exch
round exch itransform moveto Rx 0 rlineto 0 Ry neg rlineto Rx neg 0
rlineto fill grestore}B/a{moveto}B/delta 0 N/tail{A/delta X 0 rmoveto}B
/M{S p delta add tail}B/b{S p tail}B/c{-4 M}B/d{-3 M}B/e{-2 M}B/f{-1 M}
B/g{0 M}B/h{1 M}B/i{2 M}B/j{3 M}B/k{4 M}B/w{0 rmoveto}B/l{p -4 w}B/m{p
-3 w}B/n{p -2 w}B/o{p -1 w}B/q{p 1 w}B/r{p 2 w}B/s{p 3 w}B/t{p 4 w}B/x{
0 S rmoveto}B/y{3 2 roll p a}B/bos{/SS save N}B/eos{SS restore}B end

%%EndProcSet
%%BeginProcSet: special.pro 0 0
%!
TeXDict begin/SDict 200 dict N SDict begin/@SpecialDefaults{/hs 612 N
/vs 792 N/ho 0 N/vo 0 N/hsc 1 N/vsc 1 N/ang 0 N/CLIP 0 N/rwiSeen false N
/rhiSeen false N/letter{}N/note{}N/a4{}N/legal{}N}B/@scaleunit 100 N
/@hscale{@scaleunit div/hsc X}B/@vscale{@scaleunit div/vsc X}B/@hsize{
/hs X/CLIP 1 N}B/@vsize{/vs X/CLIP 1 N}B/@clip{/CLIP 2 N}B/@hoffset{/ho
X}B/@voffset{/vo X}B/@angle{/ang X}B/@rwi{10 div/rwi X/rwiSeen true N}B
/@rhi{10 div/rhi X/rhiSeen true N}B/@llx{/llx X}B/@lly{/lly X}B/@urx{
/urx X}B/@ury{/ury X}B/magscale true def end/@MacSetUp{userdict/md known
{userdict/md get type/dicttype eq{userdict begin md length 10 add md
maxlength ge{/md md dup length 20 add dict copy def}if end md begin
/letter{}N/note{}N/legal{}N/od{txpose 1 0 mtx defaultmatrix dtransform S
atan/pa X newpath clippath mark{transform{itransform moveto}}{transform{
itransform lineto}}{6 -2 roll transform 6 -2 roll transform 6 -2 roll
transform{itransform 6 2 roll itransform 6 2 roll itransform 6 2 roll
curveto}}{{closepath}}pathforall newpath counttomark array astore/gc xdf
pop ct 39 0 put 10 fz 0 fs 2 F/|______NimbusMonL-Regu fnt invertflag{PaintBlack}
if}N/txpose{pxs pys scale ppr aload pop por{noflips{pop S neg S TR pop 1
-1 scale}if xflip yflip and{pop S neg S TR 180 rotate 1 -1 scale ppr 3
get ppr 1 get neg sub neg ppr 2 get ppr 0 get neg sub neg TR}if xflip
yflip not and{pop S neg S TR pop 180 rotate ppr 3 get ppr 1 get neg sub
neg 0 TR}if yflip xflip not and{ppr 1 get neg ppr 0 get neg TR}if}{
noflips{TR pop pop 270 rotate 1 -1 scale}if xflip yflip and{TR pop pop
90 rotate 1 -1 scale ppr 3 get ppr 1 get neg sub neg ppr 2 get ppr 0 get
neg sub neg TR}if xflip yflip not and{TR pop pop 90 rotate ppr 3 get ppr
1 get neg sub neg 0 TR}if yflip xflip not and{TR pop pop 270 rotate ppr
2 get ppr 0 get neg sub neg 0 S TR}if}ifelse scaleby96{ppr aload pop 4
-1 roll add 2 div 3 1 roll add 2 div 2 copy TR .96 dup scale neg S neg S
TR}if}N/cp{pop pop showpage pm restore}N end}if}if}N/normalscale{
Resolution 72 div VResolution 72 div neg scale magscale{DVImag dup scale
}if 0 setgray}N/psfts{S 65781.76 div N}N/startTexFig{/psf$SavedState
save N userdict maxlength dict begin/magscale true def normalscale
currentpoint TR/psf$ury psfts/psf$urx psfts/psf$lly psfts/psf$llx psfts
/psf$y psfts/psf$x psfts currentpoint/psf$cy X/psf$cx X/psf$sx psf$x
psf$urx psf$llx sub div N/psf$sy psf$y psf$ury psf$lly sub div N psf$sx
psf$sy scale psf$cx psf$sx div psf$llx sub psf$cy psf$sy div psf$ury sub
TR/showpage{}N/erasepage{}N/setpagedevice{pop}N/copypage{}N/p 3 def
@MacSetUp}N/doclip{psf$llx psf$lly psf$urx psf$ury currentpoint 6 2 roll
newpath 4 copy 4 2 roll moveto 6 -1 roll S lineto S lineto S lineto
closepath clip newpath moveto}N/endTexFig{end psf$SavedState restore}N
/@beginspecial{SDict begin/SpecialSave save N gsave normalscale
currentpoint TR @SpecialDefaults count/ocount X/dcount countdictstack N}
N/@setspecial{CLIP 1 eq{newpath 0 0 moveto hs 0 rlineto 0 vs rlineto hs
neg 0 rlineto closepath clip}if ho vo TR hsc vsc scale ang rotate
rwiSeen{rwi urx llx sub div rhiSeen{rhi ury lly sub div}{dup}ifelse
scale llx neg lly neg TR}{rhiSeen{rhi ury lly sub div dup scale llx neg
lly neg TR}if}ifelse CLIP 2 eq{newpath llx lly moveto urx lly lineto urx
ury lineto llx ury lineto closepath clip}if/showpage{}N/erasepage{}N
/setpagedevice{pop}N/copypage{}N newpath}N/@endspecial{count ocount sub{
pop}repeat countdictstack dcount sub{end}repeat grestore SpecialSave
restore end}N/@defspecial{SDict begin}N/@fedspecial{end}B/li{lineto}B
/rl{rlineto}B/rc{rcurveto}B/np{/SaveX currentpoint/SaveY X N 1
setlinecap newpath}N/st{stroke SaveX SaveY moveto}N/fil{fill SaveX SaveY
moveto}N/ellipse{/endangle X/startangle X/yrad X/xrad X/savematrix
matrix currentmatrix N TR xrad yrad scale 0 0 1 startangle endangle arc
savematrix setmatrix}N end

%%EndProcSet
%%BeginProcSet: color.pro 0 0
%!
TeXDict begin/setcmykcolor where{pop}{/setcmykcolor{dup 10 eq{pop
setrgbcolor}{1 sub 4 1 roll 3{3 index add neg dup 0 lt{pop 0}if 3 1 roll
}repeat setrgbcolor pop}ifelse}B}ifelse/TeXcolorcmyk{setcmykcolor}def
/TeXcolorrgb{setrgbcolor}def/TeXcolorgrey{setgray}def/TeXcolorgray{
setgray}def/TeXcolorhsb{sethsbcolor}def/currentcmykcolor where{pop}{
/currentcmykcolor{currentrgbcolor 10}B}ifelse/DC{exch dup userdict exch
known{pop pop}{X}ifelse}B/GreenYellow{0.15 0 0.69 0 setcmykcolor}DC
/Yellow{0 0 1 0 setcmykcolor}DC/Goldenrod{0 0.10 0.84 0 setcmykcolor}DC
/Dandelion{0 0.29 0.84 0 setcmykcolor}DC/Apricot{0 0.32 0.52 0
setcmykcolor}DC/Peach{0 0.50 0.70 0 setcmykcolor}DC/Melon{0 0.46 0.50 0
setcmykcolor}DC/YellowOrange{0 0.42 1 0 setcmykcolor}DC/Orange{0 0.61
0.87 0 setcmykcolor}DC/BurntOrange{0 0.51 1 0 setcmykcolor}DC
/Bittersweet{0 0.75 1 0.24 setcmykcolor}DC/RedOrange{0 0.77 0.87 0
setcmykcolor}DC/Mahogany{0 0.85 0.87 0.35 setcmykcolor}DC/Maroon{0 0.87
0.68 0.32 setcmykcolor}DC/BrickRed{0 0.89 0.94 0.28 setcmykcolor}DC/Red{
0 1 1 0 setcmykcolor}DC/OrangeRed{0 1 0.50 0 setcmykcolor}DC/RubineRed{
0 1 0.13 0 setcmykcolor}DC/WildStrawberry{0 0.96 0.39 0 setcmykcolor}DC
/Salmon{0 0.53 0.38 0 setcmykcolor}DC/CarnationPink{0 0.63 0 0
setcmykcolor}DC/Magenta{0 1 0 0 setcmykcolor}DC/VioletRed{0 0.81 0 0
setcmykcolor}DC/Rhodamine{0 0.82 0 0 setcmykcolor}DC/Mulberry{0.34 0.90
0 0.02 setcmykcolor}DC/RedViolet{0.07 0.90 0 0.34 setcmykcolor}DC
/Fuchsia{0.47 0.91 0 0.08 setcmykcolor}DC/Lavender{0 0.48 0 0
setcmykcolor}DC/Thistle{0.12 0.59 0 0 setcmykcolor}DC/Orchid{0.32 0.64 0
0 setcmykcolor}DC/DarkOrchid{0.40 0.80 0.20 0 setcmykcolor}DC/Purple{
0.45 0.86 0 0 setcmykcolor}DC/Plum{0.50 1 0 0 setcmykcolor}DC/Violet{
0.79 0.88 0 0 setcmykcolor}DC/RoyalPurple{0.75 0.90 0 0 setcmykcolor}DC
/BlueViolet{0.86 0.91 0 0.04 setcmykcolor}DC/Periwinkle{0.57 0.55 0 0
setcmykcolor}DC/CadetBlue{0.62 0.57 0.23 0 setcmykcolor}DC
/CornflowerBlue{0.65 0.13 0 0 setcmykcolor}DC/MidnightBlue{0.98 0.13 0
0.43 setcmykcolor}DC/NavyBlue{0.94 0.54 0 0 setcmykcolor}DC/RoyalBlue{1
0.50 0 0 setcmykcolor}DC/Blue{1 1 0 0 setcmykcolor}DC/Cerulean{0.94 0.11
0 0 setcmykcolor}DC/Cyan{1 0 0 0 setcmykcolor}DC/ProcessBlue{0.96 0 0 0
setcmykcolor}DC/SkyBlue{0.62 0 0.12 0 setcmykcolor}DC/Turquoise{0.85 0
0.20 0 setcmykcolor}DC/TealBlue{0.86 0 0.34 0.02 setcmykcolor}DC
/Aquamarine{0.82 0 0.30 0 setcmykcolor}DC/BlueGreen{0.85 0 0.33 0
setcmykcolor}DC/Emerald{1 0 0.50 0 setcmykcolor}DC/JungleGreen{0.99 0
0.52 0 setcmykcolor}DC/SeaGreen{0.69 0 0.50 0 setcmykcolor}DC/Green{1 0
1 0 setcmykcolor}DC/ForestGreen{0.91 0 0.88 0.12 setcmykcolor}DC
/PineGreen{0.92 0 0.59 0.25 setcmykcolor}DC/LimeGreen{0.50 0 1 0
setcmykcolor}DC/YellowGreen{0.44 0 0.74 0 setcmykcolor}DC/SpringGreen{
0.26 0 0.76 0 setcmykcolor}DC/OliveGreen{0.64 0 0.95 0.40 setcmykcolor}
DC/RawSienna{0 0.72 1 0.45 setcmykcolor}DC/Sepia{0 0.83 1 0.70
setcmykcolor}DC/Brown{0 0.81 1 0.60 setcmykcolor}DC/Tan{0.14 0.42 0.56 0
setcmykcolor}DC/Gray{0 0 0 0.50 setcmykcolor}DC/Black{0 0 0 1
setcmykcolor}DC/White{0 0 0 0 setcmykcolor}DC end

%%EndProcSet
TeXDict begin 156819571 221710428 1000 600 600 (job-001.dvi)
@start end
%%EndProlog
%%BeginSetup
%%Feature: *Resolution 600dpi
TeXDict begin
 end
%%EndSetup
%%Page: 1 1
TeXDict begin 1 0 bop Black Black 706 5483 a @beginspecial
0 @llx 0 @lly 552 @urx 589 @ury 5520 @rwi @setspecial
%%BeginDocument: job-001.fig2dev.ps
%!PS-Adobe-3.0 EPSF-3.0
%%Title: job-001.fig
%%Creator: fig2dev Version 3.2 Patchlevel 5e
%%CreationDate: Tue May  3 20:13:25 2016
%%BoundingBox: 156 2640 708 3230
%Magnification: 1.0000
%%EndComments
%%BeginProlog
/$F2psDict 200 dict def
$F2psDict begin
$F2psDict /mtrx matrix put
/col-1 {0 setgray} bind def
/col0 {0.000 0.000 0.000 srgb} bind def
/col1 {0.000 0.000 1.000 srgb} bind def
/col2 {0.000 1.000 0.000 srgb} bind def
/col3 {0.000 1.000 1.000 srgb} bind def
/col4 {1.000 0.000 0.000 srgb} bind def
/col5 {1.000 0.000 1.000 srgb} bind def
/col6 {1.000 1.000 0.000 srgb} bind def
/col7 {1.000 1.000 1.000 srgb} bind def
/col8 {0.000 0.000 0.560 srgb} bind def
/col9 {0.000 0.000 0.690 srgb} bind def
/col10 {0.000 0.000 0.820 srgb} bind def
/col11 {0.530 0.810 1.000 srgb} bind def
/col12 {0.000 0.560 0.000 srgb} bind def
/col13 {0.000 0.690 0.000 srgb} bind def
/col14 {0.000 0.820 0.000 srgb} bind def
/col15 {0.000 0.560 0.560 srgb} bind def
/col16 {0.000 0.690 0.690 srgb} bind def
/col17 {0.000 0.820 0.820 srgb} bind def
/col18 {0.560 0.000 0.000 srgb} bind def
/col19 {0.690 0.000 0.000 srgb} bind def
/col20 {0.820 0.000 0.000 srgb} bind def
/col21 {0.560 0.000 0.560 srgb} bind def
/col22 {0.690 0.000 0.690 srgb} bind def
/col23 {0.820 0.000 0.820 srgb} bind def
/col24 {0.500 0.190 0.000 srgb} bind def
/col25 {0.630 0.250 0.000 srgb} bind def
/col26 {0.750 0.380 0.000 srgb} bind def
/col27 {1.000 0.500 0.500 srgb} bind def
/col28 {1.000 0.630 0.630 srgb} bind def
/col29 {1.000 0.750 0.750 srgb} bind def
/col30 {1.000 0.880 0.880 srgb} bind def
/col31 {1.000 0.840 0.000 srgb} bind def

end

/cp {closepath} bind def
/ef {eofill} bind def
/gr {grestore} bind def
/gs {gsave} bind def
/sa {save} bind def
/rs {restore} bind def
/l {lineto} bind def
/m {moveto} bind def
/rm {rmoveto} bind def
/n {newpath} bind def
/s {stroke} bind def
/sh {show} bind def
/slc {setlinecap} bind def
/slj {setlinejoin} bind def
/slw {setlinewidth} bind def
/srgb {setrgbcolor} bind def
/rot {rotate} bind def
/sc {scale} bind def
/sd {setdash} bind def
/ff {findfont} bind def
/sf {setfont} bind def
/scf {scalefont} bind def
/sw {stringwidth} bind def
/tr {translate} bind def
/tnt {dup dup currentrgbcolor
  4 -2 roll dup 1 exch sub 3 -1 roll mul add
  4 -2 roll dup 1 exch sub 3 -1 roll mul add
  4 -2 roll dup 1 exch sub 3 -1 roll mul add srgb}
  bind def
/shd {dup dup currentrgbcolor 4 -2 roll mul 4 -2 roll mul
  4 -2 roll mul srgb} bind def
/$F2psBegin {$F2psDict begin /$F2psEnteredState save def} def
/$F2psEnd {$F2psEnteredState restore end} def

/pageheader {
save
newpath 0 589 moveto 0 0 lineto 552 0 lineto 552 589 lineto closepath clip newpath
-14.1 587.4 translate
1 -1 scale
$F2psBegin
10 setmiterlimit
0 slj 0 slc
 0.06299 0.06299 sc
} bind def
/pagefooter {
$F2psEnd
restore
} bind def
%%EndProlog
pageheader
%
% Fig objects follow
%
% 
% here starts figure with depth 50
% Polyline
0 slj
0 slc
7.500 slw
n 700 0 m 880 0 l 880 270 l 700 270 l
 cp gs 0.40 setgray ef gr gs col0 s gr 
% Polyline
n 880 0 m 2050 0 l 2050 270 l 880 270 l
 cp gs col1 0.60 tnt ef gr gs col0 s gr 
% Polyline
0.000 slw
n 895 200 m 2040 200 l 2040 260 l 895 260 l
 cp gs col1 0.60 tnt ef gr 
% Polyline
7.500 slw
n 2050 0 m 2905 0 l 2905 270 l 2050 270 l
 cp gs col1 0.85 tnt ef gr gs col0 s gr 
% Polyline
0.000 slw
n 2065 200 m 2895 200 l 2895 260 l 2065 260 l
 cp gs col1 0.85 tnt ef gr 
% Polyline
7.500 slw
n 2905 0 m 4075 0 l 4075 270 l 2905 270 l
 cp gs col1 0.75 tnt ef gr gs col0 s gr 
% Polyline
0.000 slw
n 2920 200 m 4065 200 l 4065 260 l 2920 260 l
 cp gs col1 0.75 tnt ef gr 
% Polyline
7.500 slw
n 4075 0 m 5365 0 l 5365 270 l 4075 270 l
 cp gs col4 0.85 tnt ef gr gs col0 s gr 
% Polyline
0.000 slw
n 4090 200 m 5355 200 l 5355 260 l 4090 260 l
 cp gs col4 0.85 tnt ef gr 
% Polyline
7.500 slw
n 5365 0 m 7330 0 l 7330 270 l 5365 270 l
 cp gs col4 0.60 tnt ef gr gs col0 s gr 
% Polyline
0.000 slw
n 5380 200 m 7320 200 l 7320 260 l 5380 260 l
 cp gs col4 0.60 tnt ef gr 
% Polyline
7.500 slw
n 7330 0 m 8425 0 l 8425 270 l 7330 270 l
 cp gs col1 0.70 tnt ef gr gs col0 s gr 
% Polyline
0.000 slw
n 7345 200 m 8415 200 l 8415 260 l 7345 260 l
 cp gs col1 0.70 tnt ef gr 
% Polyline
7.500 slw
n 8425 0 m 8950 0 l 8950 270 l 8425 270 l
 cp gs col4 0.90 tnt ef gr gs col0 s gr 
% Polyline
n 700 270 m 940 270 l 940 540 l 700 540 l
 cp gs 0.40 setgray ef gr gs col0 s gr 
% Polyline
n 940 270 m 7315 270 l 7315 540 l 940 540 l
 cp gs col1 0.65 tnt ef gr gs col0 s gr 
% Polyline
0.000 slw
n 955 470 m 7305 470 l 7305 530 l 955 530 l
 cp gs col1 0.65 tnt ef gr 
% Polyline
7.500 slw
n 7315 270 m 8350 270 l 8350 540 l 7315 540 l
 cp gs col1 0.70 tnt ef gr gs col0 s gr 
% Polyline
0.000 slw
n 7345 470 m 8340 470 l 8340 530 l 7345 530 l
 cp gs col1 0.70 tnt ef gr 
% Polyline
7.500 slw
n 8350 270 m 8950 270 l 8950 540 l 8350 540 l
 cp gs col4 0.90 tnt ef gr gs col0 s gr 
% Polyline
n 700 540 m 955 540 l 955 810 l 700 810 l
 cp gs 0.40 setgray ef gr gs col0 s gr 
% Polyline
n 955 540 m 8365 540 l 8365 810 l 955 810 l
 cp gs col1 0.70 tnt ef gr gs col0 s gr 
% Polyline
0.000 slw
n 985 740 m 8355 740 l 8355 800 l 985 800 l
 cp gs col1 0.70 tnt ef gr 
% Polyline
7.500 slw
n 8365 540 m 8950 540 l 8950 810 l 8365 810 l
 cp gs col4 0.90 tnt ef gr gs col0 s gr 
% Polyline
n 700 810 m 925 810 l 925 1080 l 700 1080 l
 cp gs 0.40 setgray ef gr gs col0 s gr 
% Polyline
n 925 810 m 3880 810 l 3880 1080 l 925 1080 l
 cp gs col1 0.75 tnt ef gr gs col0 s gr 
% Polyline
0.000 slw
n 940 1010 m 3870 1010 l 3870 1070 l 940 1070 l
 cp gs col1 0.75 tnt ef gr 
% Polyline
7.500 slw
n 3880 810 m 5110 810 l 5110 1080 l 3880 1080 l
 cp gs col4 0.85 tnt ef gr gs col0 s gr 
% Polyline
n 5110 810 m 6565 810 l 6565 1080 l 5110 1080 l
 cp gs col4 0.60 tnt ef gr gs col0 s gr 
% Polyline
0.000 slw
n 5725 1010 m 6555 1010 l 6555 1070 l 5725 1070 l
 cp gs col4 0.60 tnt ef gr 
% Polyline
7.500 slw
n 6565 810 m 7825 810 l 7825 1080 l 6565 1080 l
 cp gs col4 0.75 tnt ef gr gs col0 s gr 
% Polyline
0.000 slw
n 6700 1010 m 7815 1010 l 7815 1070 l 6700 1070 l
 cp gs col4 0.75 tnt ef gr 
% Polyline
7.500 slw
n 7825 810 m 8950 810 l 8950 1080 l 7825 1080 l
 cp gs col4 0.90 tnt ef gr gs col0 s gr 
% Polyline
n 700 1080 m 940 1080 l 940 1350 l 700 1350 l
 cp gs 0.40 setgray ef gr gs col0 s gr 
% Polyline
n 940 1080 m 3910 1080 l 3910 1350 l 940 1350 l
 cp gs col1 0.80 tnt ef gr gs col0 s gr 
% Polyline
0.000 slw
n 955 1280 m 3900 1280 l 3900 1340 l 955 1340 l
 cp gs col1 0.80 tnt ef gr 
% Polyline
7.500 slw
n 3910 1080 m 5155 1080 l 5155 1350 l 3910 1350 l
 cp gs col4 0.85 tnt ef gr gs col0 s gr 
% Polyline
0.000 slw
n 4090 1280 m 5145 1280 l 5145 1340 l 4090 1340 l
 cp gs col4 0.85 tnt ef gr 
% Polyline
7.500 slw
n 5155 1080 m 6595 1080 l 6595 1350 l 5155 1350 l
 cp gs col4 0.60 tnt ef gr gs col0 s gr 
% Polyline
0.000 slw
n 5725 1280 m 6585 1280 l 6585 1340 l 5725 1340 l
 cp gs col4 0.60 tnt ef gr 
% Polyline
7.500 slw
n 6595 1080 m 7840 1080 l 7840 1350 l 6595 1350 l
 cp gs col4 0.75 tnt ef gr gs col0 s gr 
% Polyline
0.000 slw
n 6700 1280 m 7830 1280 l 7830 1340 l 6700 1340 l
 cp gs col4 0.75 tnt ef gr 
% Polyline
7.500 slw
n 7840 1080 m 8950 1080 l 8950 1350 l 7840 1350 l
 cp gs col4 0.90 tnt ef gr gs col0 s gr 
% Polyline
n 700 1350 m 955 1350 l 955 1620 l 700 1620 l
 cp gs 0.40 setgray ef gr gs col0 s gr 
% Polyline
n 955 1350 m 3295 1350 l 3295 1620 l 955 1620 l
 cp gs col1 0.85 tnt ef gr gs col0 s gr 
% Polyline
0.000 slw
n 970 1550 m 3285 1550 l 3285 1610 l 970 1610 l
 cp gs col1 0.85 tnt ef gr 
% Polyline
7.500 slw
n 3295 1350 m 5695 1350 l 5695 1620 l 3295 1620 l
 cp gs col1 0.65 tnt ef gr gs col0 s gr 
% Polyline
0.000 slw
n 3310 1550 m 5685 1550 l 5685 1610 l 3310 1610 l
 cp gs col1 0.65 tnt ef gr 
% Polyline
7.500 slw
n 5695 1350 m 8200 1350 l 8200 1620 l 5695 1620 l
 cp gs col4 0.60 tnt ef gr gs col0 s gr 
% Polyline
0.000 slw
n 5725 1550 m 8190 1550 l 8190 1610 l 5725 1610 l
 cp gs col4 0.60 tnt ef gr 
% Polyline
7.500 slw
n 8200 1350 m 8950 1350 l 8950 1620 l 8200 1620 l
 cp gs col4 0.90 tnt ef gr gs col0 s gr 
% Polyline
n 700 1620 m 970 1620 l 970 1890 l 700 1890 l
 cp gs 0.40 setgray ef gr gs col0 s gr 
% Polyline
n 970 1620 m 3280 1620 l 3280 1890 l 970 1890 l
 cp gs col1 0.90 tnt ef gr gs col0 s gr 
% Polyline
0.000 slw
n 985 1820 m 3270 1820 l 3270 1880 l 985 1880 l
 cp gs col1 0.90 tnt ef gr 
% Polyline
7.500 slw
n 3280 1620 m 5710 1620 l 5710 1890 l 3280 1890 l
 cp gs col1 0.65 tnt ef gr gs col0 s gr 
% Polyline
0.000 slw
n 3295 1820 m 5700 1820 l 5700 1880 l 3295 1880 l
 cp gs col1 0.65 tnt ef gr 
% Polyline
7.500 slw
n 5710 1620 m 8185 1620 l 8185 1890 l 5710 1890 l
 cp gs col4 0.60 tnt ef gr gs col0 s gr 
% Polyline
0.000 slw
n 5725 1820 m 8175 1820 l 8175 1880 l 5725 1880 l
 cp gs col4 0.60 tnt ef gr 
% Polyline
7.500 slw
n 8185 1620 m 8950 1620 l 8950 1890 l 8185 1890 l
 cp gs col4 0.90 tnt ef gr gs col0 s gr 
% Polyline
n 700 1890 m 925 1890 l 925 2160 l 700 2160 l
 cp gs 0.40 setgray ef gr gs col0 s gr 
% Polyline
n 925 1890 m 1075 1890 l 1075 2160 l 925 2160 l
 cp gs col7 1.00 shd ef gr gs col0 s gr 
% Polyline
0.000 slw
n 940 2090 m 1065 2090 l 1065 2150 l 940 2150 l
 cp gs col7 1.00 shd ef gr 
% Polyline
7.500 slw
n 1075 1890 m 8950 1890 l 8950 2160 l 1075 2160 l
 cp gs col4 0.90 tnt ef gr gs col0 s gr 
% Polyline
n 700 2160 m 955 2160 l 955 2430 l 700 2430 l
 cp gs 0.40 setgray ef gr gs col0 s gr 
% Polyline
n 955 2160 m 8950 2160 l 8950 2430 l 955 2430 l
 cp gs col4 0.90 tnt ef gr gs col0 s gr 
% Polyline
n 700 2430 m 1015 2430 l 1015 2700 l 700 2700 l
 cp gs 0.40 setgray ef gr gs col0 s gr 
% Polyline
n 1015 2430 m 5320 2430 l 5320 2700 l 1015 2700 l
 cp gs col4 0.85 tnt ef gr gs col0 s gr 
% Polyline
0.000 slw
n 4090 2630 m 5310 2630 l 5310 2690 l 4090 2690 l
 cp gs col4 0.85 tnt ef gr 
% Polyline
7.500 slw
n 5320 2430 m 6655 2430 l 6655 2700 l 5320 2700 l
 cp gs col4 0.60 tnt ef gr gs col0 s gr 
% Polyline
0.000 slw
n 5725 2630 m 6645 2630 l 6645 2690 l 5725 2690 l
 cp gs col4 0.60 tnt ef gr 
% Polyline
7.500 slw
n 6655 2430 m 7780 2430 l 7780 2700 l 6655 2700 l
 cp gs col4 0.75 tnt ef gr gs col0 s gr 
% Polyline
0.000 slw
n 6700 2630 m 7770 2630 l 7770 2690 l 6700 2690 l
 cp gs col4 0.75 tnt ef gr 
% Polyline
7.500 slw
n 7780 2430 m 8950 2430 l 8950 2700 l 7780 2700 l
 cp gs col4 0.90 tnt ef gr gs col0 s gr 
% Polyline
n 700 2700 m 1000 2700 l 1000 2970 l 700 2970 l
 cp gs 0.40 setgray ef gr gs col0 s gr 
% Polyline
n 1000 2700 m 1870 2700 l 1870 2970 l 1000 2970 l
 cp gs col4 0.80 tnt ef gr gs col0 s gr 
% Polyline
0.000 slw
n 1015 2900 m 1860 2900 l 1860 2960 l 1015 2960 l
 cp gs col4 0.80 tnt ef gr 
% Polyline
7.500 slw
n 1870 2700 m 5335 2700 l 5335 2970 l 1870 2970 l
 cp gs col4 0.85 tnt ef gr gs col0 s gr 
% Polyline
0.000 slw
n 4090 2900 m 5325 2900 l 5325 2960 l 4090 2960 l
 cp gs col4 0.85 tnt ef gr 
% Polyline
7.500 slw
n 5335 2700 m 6685 2700 l 6685 2970 l 5335 2970 l
 cp gs col4 0.60 tnt ef gr gs col0 s gr 
% Polyline
0.000 slw
n 5725 2900 m 6675 2900 l 6675 2960 l 5725 2960 l
 cp gs col4 0.60 tnt ef gr 
% Polyline
7.500 slw
n 6685 2700 m 7795 2700 l 7795 2970 l 6685 2970 l
 cp gs col4 0.75 tnt ef gr gs col0 s gr 
% Polyline
0.000 slw
n 6700 2900 m 7785 2900 l 7785 2960 l 6700 2960 l
 cp gs col4 0.75 tnt ef gr 
% Polyline
7.500 slw
n 7795 2700 m 8950 2700 l 8950 2970 l 7795 2970 l
 cp gs col4 0.90 tnt ef gr gs col0 s gr 
% Polyline
n 700 2970 m 895 2970 l 895 3240 l 700 3240 l
 cp gs 0.40 setgray ef gr gs col0 s gr 
% Polyline
n 895 2970 m 8575 2970 l 8575 3240 l 895 3240 l
 cp gs col4 0.75 tnt ef gr gs col0 s gr 
% Polyline
0.000 slw
n 6700 3170 m 8565 3170 l 8565 3230 l 6700 3230 l
 cp gs col4 0.75 tnt ef gr 
% Polyline
7.500 slw
n 8575 2970 m 8950 2970 l 8950 3240 l 8575 3240 l
 cp gs col4 0.90 tnt ef gr gs col0 s gr 
% Polyline
n 700 3240 m 880 3240 l 880 3510 l 700 3510 l
 cp gs 0.40 setgray ef gr gs col0 s gr 
% Polyline
n 880 3240 m 1555 3240 l 1555 3510 l 880 3510 l
 cp gs col4 0.70 tnt ef gr gs col0 s gr 
% Polyline
0.000 slw
n 895 3440 m 1545 3440 l 1545 3500 l 895 3500 l
 cp gs col4 0.70 tnt ef gr 
% Polyline
7.500 slw
n 1555 3240 m 8545 3240 l 8545 3510 l 1555 3510 l
 cp gs col4 0.75 tnt ef gr gs col0 s gr 
% Polyline
0.000 slw
n 6700 3440 m 8535 3440 l 8535 3500 l 6700 3500 l
 cp gs col4 0.75 tnt ef gr 
% Polyline
7.500 slw
n 8545 3240 m 8950 3240 l 8950 3510 l 8545 3510 l
 cp gs col4 0.90 tnt ef gr gs col0 s gr 
% Polyline
n 700 3510 m 895 3510 l 895 3780 l 700 3780 l
 cp gs 0.40 setgray ef gr gs col0 s gr 
% Polyline
n 895 3510 m 1000 3510 l 1000 3780 l 895 3780 l
 cp gs col4 0.65 tnt ef gr gs col0 s gr 
% Polyline
0.000 slw
n 910 3710 m 990 3710 l 990 3770 l 910 3770 l
 cp gs col4 0.65 tnt ef gr 
% Polyline
7.500 slw
n 1000 3510 m 6385 3510 l 6385 3780 l 1000 3780 l
 cp gs col4 0.60 tnt ef gr gs col0 s gr 
% Polyline
n 6385 3510 m 8620 3510 l 8620 3780 l 6385 3780 l
 cp gs col4 0.75 tnt ef gr gs col0 s gr 
% Polyline
0.000 slw
n 6700 3710 m 8610 3710 l 8610 3770 l 6700 3770 l
 cp gs col4 0.75 tnt ef gr 
% Polyline
7.500 slw
n 8620 3510 m 8950 3510 l 8950 3780 l 8620 3780 l
 cp gs col4 0.90 tnt ef gr gs col0 s gr 
% Polyline
n 700 3780 m 940 3780 l 940 4050 l 700 4050 l
 cp gs 0.40 setgray ef gr gs col0 s gr 
% Polyline
n 940 3780 m 6415 3780 l 6415 4050 l 940 4050 l
 cp gs col4 0.60 tnt ef gr gs col0 s gr 
% Polyline
0.000 slw
n 1090 3980 m 6405 3980 l 6405 4040 l 1090 4040 l
 cp gs col4 0.60 tnt ef gr 
% Polyline
7.500 slw
n 6415 3780 m 8635 3780 l 8635 4050 l 6415 4050 l
 cp gs col4 0.75 tnt ef gr gs col0 s gr 
% Polyline
0.000 slw
n 6700 3980 m 8625 3980 l 8625 4040 l 6700 4040 l
 cp gs col4 0.75 tnt ef gr 
% Polyline
7.500 slw
n 8635 3780 m 8950 3780 l 8950 4050 l 8635 4050 l
 cp gs col4 0.90 tnt ef gr gs col0 s gr 
% Polyline
15.000 slw
gs  clippath
8814 4280 m 8965 4280 l 8965 4220 l 8814 4220 l 8814 4220 l 8934 4250 l 8814 4280 l cp
eoclip
n 700 4250 m
 8950 4250 l gs col0 s gr gr

% arrowhead
7.500 slw
n 8814 4280 m 8934 4250 l 8814 4220 l 8814 4280 l  cp gs 0.00 setgray ef gr  col0 s
% Polyline
n 700 4200 m
 700 4300 l gs col0 s gr 
% Polyline
n 1450 4200 m
 1450 4300 l gs col0 s gr 
% Polyline
n 2200 4200 m
 2200 4300 l gs col0 s gr 
% Polyline
n 2950 4200 m
 2950 4300 l gs col0 s gr 
% Polyline
n 3700 4200 m
 3700 4300 l gs col0 s gr 
% Polyline
n 4450 4200 m
 4450 4300 l gs col0 s gr 
% Polyline
n 5200 4200 m
 5200 4300 l gs col0 s gr 
% Polyline
n 5950 4200 m
 5950 4300 l gs col0 s gr 
% Polyline
n 6700 4200 m
 6700 4300 l gs col0 s gr 
% Polyline
n 7450 4200 m
 7450 4300 l gs col0 s gr 
% Polyline
n 8200 4200 m
 8200 4300 l gs col0 s gr 
% Polyline
n 700 4860 m 2500 4860 l 2500 5130 l 700 5130 l
 cp gs 0.40 setgray ef gr gs col0 s gr 
% Polyline
n 2500 4860 m 8200 4860 l 8200 5130 l 2500 5130 l
 cp gs col1 0.60 tnt ef gr gs col0 s gr 
% Polyline
0.000 slw
n 2650 5060 m 8190 5060 l 8190 5120 l 2650 5120 l
 cp gs col1 0.60 tnt ef gr 
% Polyline
7.500 slw
n 700 5130 m 3100 5130 l 3100 5400 l 700 5400 l
 cp gs 0.40 setgray ef gr gs col0 s gr 
% Polyline
n 3100 5130 m 8200 5130 l 8200 5400 l 3100 5400 l
 cp gs col1 0.65 tnt ef gr gs col0 s gr 
% Polyline
0.000 slw
n 3250 5330 m 8190 5330 l 8190 5390 l 3250 5390 l
 cp gs col1 0.65 tnt ef gr 
% Polyline
7.500 slw
n 700 5400 m 3250 5400 l 3250 5670 l 700 5670 l
 cp gs 0.40 setgray ef gr gs col0 s gr 
% Polyline
n 3250 5400 m 8200 5400 l 8200 5670 l 3250 5670 l
 cp gs col1 0.70 tnt ef gr gs col0 s gr 
% Polyline
0.000 slw
n 3550 5600 m 8190 5600 l 8190 5660 l 3550 5660 l
 cp gs col1 0.70 tnt ef gr 
% Polyline
7.500 slw
n 700 5670 m 2950 5670 l 2950 5940 l 700 5940 l
 cp gs 0.40 setgray ef gr gs col0 s gr 
% Polyline
n 2950 5670 m 8200 5670 l 8200 5940 l 2950 5940 l
 cp gs col1 0.75 tnt ef gr gs col0 s gr 
% Polyline
0.000 slw
n 3100 5870 m 8190 5870 l 8190 5930 l 3100 5930 l
 cp gs col1 0.75 tnt ef gr 
% Polyline
7.500 slw
n 700 5940 m 3100 5940 l 3100 6210 l 700 6210 l
 cp gs 0.40 setgray ef gr gs col0 s gr 
% Polyline
n 3100 5940 m 8200 5940 l 8200 6210 l 3100 6210 l
 cp gs col1 0.80 tnt ef gr gs col0 s gr 
% Polyline
0.000 slw
n 3250 6140 m 8190 6140 l 8190 6200 l 3250 6200 l
 cp gs col1 0.80 tnt ef gr 
% Polyline
7.500 slw
n 700 6210 m 3250 6210 l 3250 6480 l 700 6480 l
 cp gs 0.40 setgray ef gr gs col0 s gr 
% Polyline
n 3250 6210 m 8200 6210 l 8200 6480 l 3250 6480 l
 cp gs col1 0.85 tnt ef gr gs col0 s gr 
% Polyline
0.000 slw
n 3400 6410 m 8190 6410 l 8190 6470 l 3400 6470 l
 cp gs col1 0.85 tnt ef gr 
% Polyline
7.500 slw
n 700 6480 m 3400 6480 l 3400 6750 l 700 6750 l
 cp gs 0.40 setgray ef gr gs col0 s gr 
% Polyline
n 3400 6480 m 8200 6480 l 8200 6750 l 3400 6750 l
 cp gs col1 0.90 tnt ef gr gs col0 s gr 
% Polyline
0.000 slw
n 3550 6680 m 8190 6680 l 8190 6740 l 3550 6740 l
 cp gs col1 0.90 tnt ef gr 
% Polyline
7.500 slw
n 700 6750 m 2950 6750 l 2950 7020 l 700 7020 l
 cp gs 0.40 setgray ef gr gs col0 s gr 
% Polyline
n 2950 6750 m 4450 6750 l 4450 7020 l 2950 7020 l
 cp gs col7 1.00 shd ef gr gs col0 s gr 
% Polyline
0.000 slw
n 3100 6950 m 4440 6950 l 4440 7010 l 3100 7010 l
 cp gs col7 1.00 shd ef gr 
% Polyline
7.500 slw
n 4450 6750 m 8200 6750 l 8200 7020 l 4450 7020 l
 cp gs col4 0.90 tnt ef gr gs col0 s gr 
% Polyline
n 700 7020 m 3250 7020 l 3250 7290 l 700 7290 l
 cp gs 0.40 setgray ef gr gs col0 s gr 
% Polyline
n 3250 7020 m 8200 7020 l 8200 7290 l 3250 7290 l
 cp gs col4 0.90 tnt ef gr gs col0 s gr 
% Polyline
n 700 7290 m 3850 7290 l 3850 7560 l 700 7560 l
 cp gs 0.40 setgray ef gr gs col0 s gr 
% Polyline
n 3850 7290 m 8200 7290 l 8200 7560 l 3850 7560 l
 cp gs col4 0.85 tnt ef gr gs col0 s gr 
% Polyline
n 700 7560 m 3700 7560 l 3700 7830 l 700 7830 l
 cp gs 0.40 setgray ef gr gs col0 s gr 
% Polyline
n 3700 7560 m 8200 7560 l 8200 7830 l 3700 7830 l
 cp gs col4 0.80 tnt ef gr gs col0 s gr 
% Polyline
0.000 slw
n 3850 7760 m 8190 7760 l 8190 7820 l 3850 7820 l
 cp gs col4 0.80 tnt ef gr 
% Polyline
7.500 slw
n 700 7830 m 2650 7830 l 2650 8100 l 700 8100 l
 cp gs 0.40 setgray ef gr gs col0 s gr 
% Polyline
n 2650 7830 m 8200 7830 l 8200 8100 l 2650 8100 l
 cp gs col4 0.75 tnt ef gr gs col0 s gr 
% Polyline
n 700 8100 m 2500 8100 l 2500 8370 l 700 8370 l
 cp gs 0.40 setgray ef gr gs col0 s gr 
% Polyline
n 2500 8100 m 8200 8100 l 8200 8370 l 2500 8370 l
 cp gs col4 0.70 tnt ef gr gs col0 s gr 
% Polyline
0.000 slw
n 2650 8300 m 8190 8300 l 8190 8360 l 2650 8360 l
 cp gs col4 0.70 tnt ef gr 
% Polyline
7.500 slw
n 700 8370 m 2650 8370 l 2650 8640 l 700 8640 l
 cp gs 0.40 setgray ef gr gs col0 s gr 
% Polyline
n 2650 8370 m 3700 8370 l 3700 8640 l 2650 8640 l
 cp gs col4 0.65 tnt ef gr gs col0 s gr 
% Polyline
0.000 slw
n 2800 8570 m 3690 8570 l 3690 8630 l 2800 8630 l
 cp gs col4 0.65 tnt ef gr 
% Polyline
7.500 slw
n 3700 8370 m 8200 8370 l 8200 8640 l 3700 8640 l
 cp gs col4 0.60 tnt ef gr gs col0 s gr 
% Polyline
n 700 8640 m 3100 8640 l 3100 8910 l 700 8910 l
 cp gs 0.40 setgray ef gr gs col0 s gr 
% Polyline
n 3100 8640 m 8200 8640 l 8200 8910 l 3100 8910 l
 cp gs col4 0.60 tnt ef gr gs col0 s gr 
% Polyline
0.000 slw
n 4600 8840 m 8190 8840 l 8190 8900 l 4600 8900 l
 cp gs col4 0.60 tnt ef gr 
% Polyline
15.000 slw
gs  clippath
8064 9140 m 8215 9140 l 8215 9080 l 8064 9080 l 8064 9080 l 8184 9110 l 8064 9140 l cp
eoclip
n 700 9110 m
 8200 9110 l gs col0 s gr gr

% arrowhead
7.500 slw
n 8064 9140 m 8184 9110 l 8064 9080 l 8064 9140 l  cp gs 0.00 setgray ef gr  col0 s
% Polyline
n 700 9060 m
 700 9160 l gs col0 s gr 
% Polyline
n 1450 9060 m
 1450 9160 l gs col0 s gr 
% Polyline
n 2200 9060 m
 2200 9160 l gs col0 s gr 
% Polyline
n 2950 9060 m
 2950 9160 l gs col0 s gr 
% Polyline
n 3700 9060 m
 3700 9160 l gs col0 s gr 
% Polyline
n 4450 9060 m
 4450 9160 l gs col0 s gr 
% Polyline
n 5200 9060 m
 5200 9160 l gs col0 s gr 
% Polyline
n 5950 9060 m
 5950 9160 l gs col0 s gr 
% Polyline
n 6700 9060 m
 6700 9160 l gs col0 s gr 
% Polyline
n 7450 9060 m
 7450 9160 l gs col0 s gr 
% Polyline
 [60] 0 sd
n 700 4250 m
 700 4860 l gs col0 s gr  [] 0 sd
% Polyline
 [60] 0 sd
n 1450 4250 m
 8200 4860 l gs col0 s gr  [] 0 sd
% Polyline
n 3900 4725 m
 3900 9270 l gs col0 s gr 
/NimbusSanL-Bold ff 135.00 scf sf
1465 200 m
gs 1 -1 sc (1) dup sw pop 2 div neg 0 rm  col0 sh gr
/NimbusSanL-Bold ff 135.00 scf sf
2470 200 m
gs 1 -1 sc (6) dup sw pop 2 div neg 0 rm  col0 sh gr
/NimbusSanL-Bold ff 135.00 scf sf
3490 200 m
gs 1 -1 sc (4) dup sw pop 2 div neg 0 rm  col0 sh gr
/NimbusSanL-Bold ff 135.00 scf sf
4720 200 m
gs 1 -1 sc (10) dup sw pop 2 div neg 0 rm  col0 sh gr
/NimbusSanL-Bold ff 135.00 scf sf
6340 200 m
gs 1 -1 sc (15) dup sw pop 2 div neg 0 rm  col0 sh gr
/NimbusSanL-Bold ff 135.00 scf sf
7870 200 m
gs 1 -1 sc (3) dup sw pop 2 div neg 0 rm  col0 sh gr
/NimbusSanL-Bold ff 135.00 scf sf
8680 200 m
gs 1 -1 sc (9) dup sw pop 2 div neg 0 rm  col0 sh gr
/NimbusSanL-Bold ff 135.00 scf sf
4120 470 m
gs 1 -1 sc (2) dup sw pop 2 div neg 0 rm  col0 sh gr
/NimbusSanL-Bold ff 135.00 scf sf
7825 470 m
gs 1 -1 sc (3) dup sw pop 2 div neg 0 rm  col0 sh gr
/NimbusSanL-Bold ff 135.00 scf sf
8650 470 m
gs 1 -1 sc (9) dup sw pop 2 div neg 0 rm  col0 sh gr
/NimbusSanL-Bold ff 135.00 scf sf
4660 740 m
gs 1 -1 sc (3) dup sw pop 2 div neg 0 rm  col0 sh gr
/NimbusSanL-Bold ff 135.00 scf sf
8650 740 m
gs 1 -1 sc (9) dup sw pop 2 div neg 0 rm  col0 sh gr
/NimbusSanL-Bold ff 135.00 scf sf
2395 1010 m
gs 1 -1 sc (4) dup sw pop 2 div neg 0 rm  col0 sh gr
/NimbusSanL-Bold ff 135.00 scf sf
4495 1010 m
gs 1 -1 sc (10) dup sw pop 2 div neg 0 rm  col0 sh gr
/NimbusSanL-Bold ff 135.00 scf sf
5830 1010 m
gs 1 -1 sc (15) dup sw pop 2 div neg 0 rm  col0 sh gr
/NimbusSanL-Bold ff 135.00 scf sf
7195 1010 m
gs 1 -1 sc (12) dup sw pop 2 div neg 0 rm  col0 sh gr
/NimbusSanL-Bold ff 135.00 scf sf
8380 1010 m
gs 1 -1 sc (9) dup sw pop 2 div neg 0 rm  col0 sh gr
/NimbusSanL-Bold ff 135.00 scf sf
2425 1280 m
gs 1 -1 sc (5) dup sw pop 2 div neg 0 rm  col0 sh gr
/NimbusSanL-Bold ff 135.00 scf sf
4525 1280 m
gs 1 -1 sc (10) dup sw pop 2 div neg 0 rm  col0 sh gr
/NimbusSanL-Bold ff 135.00 scf sf
5875 1280 m
gs 1 -1 sc (15) dup sw pop 2 div neg 0 rm  col0 sh gr
/NimbusSanL-Bold ff 135.00 scf sf
7210 1280 m
gs 1 -1 sc (12) dup sw pop 2 div neg 0 rm  col0 sh gr
/NimbusSanL-Bold ff 135.00 scf sf
8395 1280 m
gs 1 -1 sc (9) dup sw pop 2 div neg 0 rm  col0 sh gr
/NimbusSanL-Bold ff 135.00 scf sf
2125 1550 m
gs 1 -1 sc (6) dup sw pop 2 div neg 0 rm  col0 sh gr
/NimbusSanL-Bold ff 135.00 scf sf
4495 1550 m
gs 1 -1 sc (2) dup sw pop 2 div neg 0 rm  col0 sh gr
/NimbusSanL-Bold ff 135.00 scf sf
6940 1550 m
gs 1 -1 sc (15) dup sw pop 2 div neg 0 rm  col0 sh gr
/NimbusSanL-Bold ff 135.00 scf sf
8575 1550 m
gs 1 -1 sc (9) dup sw pop 2 div neg 0 rm  col0 sh gr
/NimbusSanL-Bold ff 135.00 scf sf
2125 1820 m
gs 1 -1 sc (7) dup sw pop 2 div neg 0 rm  col0 sh gr
/NimbusSanL-Bold ff 135.00 scf sf
4495 1820 m
gs 1 -1 sc (2) dup sw pop 2 div neg 0 rm  col0 sh gr
/NimbusSanL-Bold ff 135.00 scf sf
6940 1820 m
gs 1 -1 sc (15) dup sw pop 2 div neg 0 rm  col0 sh gr
/NimbusSanL-Bold ff 135.00 scf sf
8560 1820 m
gs 1 -1 sc (9) dup sw pop 2 div neg 0 rm  col0 sh gr
/NimbusSanL-Bold ff 135.00 scf sf
1000 2090 m
gs 1 -1 sc (8) dup sw pop 2 div neg 0 rm  col0 sh gr
/NimbusSanL-Bold ff 135.00 scf sf
5005 2090 m
gs 1 -1 sc (9) dup sw pop 2 div neg 0 rm  col0 sh gr
/NimbusSanL-Bold ff 135.00 scf sf
4945 2360 m
gs 1 -1 sc (9) dup sw pop 2 div neg 0 rm  col0 sh gr
/NimbusSanL-Bold ff 135.00 scf sf
3160 2630 m
gs 1 -1 sc (10) dup sw pop 2 div neg 0 rm  col0 sh gr
/NimbusSanL-Bold ff 135.00 scf sf
5980 2630 m
gs 1 -1 sc (15) dup sw pop 2 div neg 0 rm  col0 sh gr
/NimbusSanL-Bold ff 135.00 scf sf
7210 2630 m
gs 1 -1 sc (12) dup sw pop 2 div neg 0 rm  col0 sh gr
/NimbusSanL-Bold ff 135.00 scf sf
8365 2630 m
gs 1 -1 sc (9) dup sw pop 2 div neg 0 rm  col0 sh gr
/NimbusSanL-Bold ff 135.00 scf sf
1435 2900 m
gs 1 -1 sc (11) dup sw pop 2 div neg 0 rm  col0 sh gr
/NimbusSanL-Bold ff 135.00 scf sf
3595 2900 m
gs 1 -1 sc (10) dup sw pop 2 div neg 0 rm  col0 sh gr
/NimbusSanL-Bold ff 135.00 scf sf
6010 2900 m
gs 1 -1 sc (15) dup sw pop 2 div neg 0 rm  col0 sh gr
/NimbusSanL-Bold ff 135.00 scf sf
7240 2900 m
gs 1 -1 sc (12) dup sw pop 2 div neg 0 rm  col0 sh gr
/NimbusSanL-Bold ff 135.00 scf sf
8365 2900 m
gs 1 -1 sc (9) dup sw pop 2 div neg 0 rm  col0 sh gr
/NimbusSanL-Bold ff 135.00 scf sf
4735 3170 m
gs 1 -1 sc (12) dup sw pop 2 div neg 0 rm  col0 sh gr
/NimbusSanL-Bold ff 135.00 scf sf
8755 3170 m
gs 1 -1 sc (9) dup sw pop 2 div neg 0 rm  col0 sh gr
/NimbusSanL-Bold ff 135.00 scf sf
1210 3440 m
gs 1 -1 sc (13) dup sw pop 2 div neg 0 rm  col0 sh gr
/NimbusSanL-Bold ff 135.00 scf sf
5050 3440 m
gs 1 -1 sc (12) dup sw pop 2 div neg 0 rm  col0 sh gr
/NimbusSanL-Bold ff 135.00 scf sf
8740 3440 m
gs 1 -1 sc (9) dup sw pop 2 div neg 0 rm  col0 sh gr
/NimbusSanL-Bold ff 135.00 scf sf
940 3710 m
gs 1 -1 sc (14) dup sw pop 2 div neg 0 rm  col0 sh gr
/NimbusSanL-Bold ff 135.00 scf sf
3685 3710 m
gs 1 -1 sc (15) dup sw pop 2 div neg 0 rm  col0 sh gr
/NimbusSanL-Bold ff 135.00 scf sf
7495 3710 m
gs 1 -1 sc (12) dup sw pop 2 div neg 0 rm  col0 sh gr
/NimbusSanL-Bold ff 135.00 scf sf
8785 3710 m
gs 1 -1 sc (9) dup sw pop 2 div neg 0 rm  col0 sh gr
/NimbusSanL-Bold ff 135.00 scf sf
3670 3980 m
gs 1 -1 sc (15) dup sw pop 2 div neg 0 rm  col0 sh gr
/NimbusSanL-Bold ff 135.00 scf sf
7525 3980 m
gs 1 -1 sc (12) dup sw pop 2 div neg 0 rm  col0 sh gr
/NimbusSanL-Bold ff 135.00 scf sf
8785 3980 m
gs 1 -1 sc (9) dup sw pop 2 div neg 0 rm  col0 sh gr
/NimbusSanL-Regu ff 135.00 scf sf
700 4450 m
gs 1 -1 sc (0) dup sw pop 2 div neg 0 rm  col0 sh gr
/NimbusSanL-Regu ff 135.00 scf sf
1450 4450 m
gs 1 -1 sc (50) dup sw pop 2 div neg 0 rm  col0 sh gr
/NimbusSanL-Regu ff 135.00 scf sf
2200 4450 m
gs 1 -1 sc (100) dup sw pop 2 div neg 0 rm  col0 sh gr
/NimbusSanL-Regu ff 135.00 scf sf
2950 4450 m
gs 1 -1 sc (150) dup sw pop 2 div neg 0 rm  col0 sh gr
/NimbusSanL-Regu ff 135.00 scf sf
3700 4450 m
gs 1 -1 sc (200) dup sw pop 2 div neg 0 rm  col0 sh gr
/NimbusSanL-Regu ff 135.00 scf sf
4450 4450 m
gs 1 -1 sc (250) dup sw pop 2 div neg 0 rm  col0 sh gr
/NimbusSanL-Regu ff 135.00 scf sf
5200 4450 m
gs 1 -1 sc (300) dup sw pop 2 div neg 0 rm  col0 sh gr
/NimbusSanL-Regu ff 135.00 scf sf
5950 4450 m
gs 1 -1 sc (350) dup sw pop 2 div neg 0 rm  col0 sh gr
/NimbusSanL-Regu ff 135.00 scf sf
6700 4450 m
gs 1 -1 sc (400) dup sw pop 2 div neg 0 rm  col0 sh gr
/NimbusSanL-Regu ff 135.00 scf sf
7450 4450 m
gs 1 -1 sc (450) dup sw pop 2 div neg 0 rm  col0 sh gr
/NimbusSanL-Regu ff 135.00 scf sf
8200 4450 m
gs 1 -1 sc (500) dup sw pop 2 div neg 0 rm  col0 sh gr
/NimbusSanL-Regu ff 127.50 scf sf
670 200 m
gs 1 -1 sc (CPU  1) dup sw pop neg 0 rm  col0 sh gr
/NimbusSanL-Regu ff 127.50 scf sf
670 470 m
gs 1 -1 sc (CPU  2) dup sw pop neg 0 rm  col0 sh gr
/NimbusSanL-Regu ff 127.50 scf sf
670 740 m
gs 1 -1 sc (CPU  3) dup sw pop neg 0 rm  col0 sh gr
/NimbusSanL-Regu ff 127.50 scf sf
670 1010 m
gs 1 -1 sc (CPU  4) dup sw pop neg 0 rm  col0 sh gr
/NimbusSanL-Regu ff 127.50 scf sf
670 1280 m
gs 1 -1 sc (CPU  5) dup sw pop neg 0 rm  col0 sh gr
/NimbusSanL-Regu ff 127.50 scf sf
670 1550 m
gs 1 -1 sc (CPU  6) dup sw pop neg 0 rm  col0 sh gr
/NimbusSanL-Regu ff 127.50 scf sf
670 1820 m
gs 1 -1 sc (CPU  7) dup sw pop neg 0 rm  col0 sh gr
/NimbusSanL-Regu ff 127.50 scf sf
670 2090 m
gs 1 -1 sc (CPU  8) dup sw pop neg 0 rm  col0 sh gr
/NimbusSanL-Regu ff 127.50 scf sf
670 2360 m
gs 1 -1 sc (CPU  9) dup sw pop neg 0 rm  col0 sh gr
/NimbusSanL-Regu ff 127.50 scf sf
670 2630 m
gs 1 -1 sc (CPU 10) dup sw pop neg 0 rm  col0 sh gr
/NimbusSanL-Regu ff 127.50 scf sf
670 2900 m
gs 1 -1 sc (CPU 11) dup sw pop neg 0 rm  col0 sh gr
/NimbusSanL-Regu ff 127.50 scf sf
670 3170 m
gs 1 -1 sc (CPU 12) dup sw pop neg 0 rm  col0 sh gr
/NimbusSanL-Regu ff 127.50 scf sf
670 3440 m
gs 1 -1 sc (CPU 13) dup sw pop neg 0 rm  col0 sh gr
/NimbusSanL-Regu ff 127.50 scf sf
670 3710 m
gs 1 -1 sc (CPU 14) dup sw pop neg 0 rm  col0 sh gr
/NimbusSanL-Regu ff 127.50 scf sf
670 3980 m
gs 1 -1 sc (CPU 15) dup sw pop neg 0 rm  col0 sh gr
/NimbusSanL-Bold ff 135.00 scf sf
5350 5060 m
gs 1 -1 sc (1) dup sw pop 2 div neg 0 rm  col0 sh gr
/NimbusSanL-Bold ff 135.00 scf sf
5650 5330 m
gs 1 -1 sc (2) dup sw pop 2 div neg 0 rm  col0 sh gr
/NimbusSanL-Bold ff 135.00 scf sf
5650 5600 m
gs 1 -1 sc (3) dup sw pop 2 div neg 0 rm  col0 sh gr
/NimbusSanL-Bold ff 135.00 scf sf
5500 5870 m
gs 1 -1 sc (4) dup sw pop 2 div neg 0 rm  col0 sh gr
/NimbusSanL-Bold ff 135.00 scf sf
5650 6140 m
gs 1 -1 sc (5) dup sw pop 2 div neg 0 rm  col0 sh gr
/NimbusSanL-Bold ff 135.00 scf sf
5650 6410 m
gs 1 -1 sc (6) dup sw pop 2 div neg 0 rm  col0 sh gr
/NimbusSanL-Bold ff 135.00 scf sf
5800 6680 m
gs 1 -1 sc (7) dup sw pop 2 div neg 0 rm  col0 sh gr
/NimbusSanL-Bold ff 135.00 scf sf
3700 6950 m
gs 1 -1 sc (8) dup sw pop 2 div neg 0 rm  col0 sh gr
/NimbusSanL-Bold ff 135.00 scf sf
6250 6950 m
gs 1 -1 sc (9) dup sw pop 2 div neg 0 rm  col0 sh gr
/NimbusSanL-Bold ff 135.00 scf sf
5650 7220 m
gs 1 -1 sc (9) dup sw pop 2 div neg 0 rm  col0 sh gr
/NimbusSanL-Bold ff 135.00 scf sf
5950 7490 m
gs 1 -1 sc (10) dup sw pop 2 div neg 0 rm  col0 sh gr
/NimbusSanL-Bold ff 135.00 scf sf
5950 7760 m
gs 1 -1 sc (11) dup sw pop 2 div neg 0 rm  col0 sh gr
/NimbusSanL-Bold ff 135.00 scf sf
5350 8030 m
gs 1 -1 sc (12) dup sw pop 2 div neg 0 rm  col0 sh gr
/NimbusSanL-Bold ff 135.00 scf sf
5350 8300 m
gs 1 -1 sc (13) dup sw pop 2 div neg 0 rm  col0 sh gr
/NimbusSanL-Bold ff 135.00 scf sf
3100 8570 m
gs 1 -1 sc (14) dup sw pop 2 div neg 0 rm  col0 sh gr
/NimbusSanL-Bold ff 135.00 scf sf
5950 8570 m
gs 1 -1 sc (15) dup sw pop 2 div neg 0 rm  col0 sh gr
/NimbusSanL-Bold ff 135.00 scf sf
5650 8840 m
gs 1 -1 sc (15) dup sw pop 2 div neg 0 rm  col0 sh gr
/NimbusSanL-Regu ff 135.00 scf sf
700 9310 m
gs 1 -1 sc (0) dup sw pop 2 div neg 0 rm  col0 sh gr
/NimbusSanL-Regu ff 135.00 scf sf
1450 9310 m
gs 1 -1 sc (5) dup sw pop 2 div neg 0 rm  col0 sh gr
/NimbusSanL-Regu ff 135.00 scf sf
2200 9310 m
gs 1 -1 sc (10) dup sw pop 2 div neg 0 rm  col0 sh gr
/NimbusSanL-Regu ff 135.00 scf sf
2950 9310 m
gs 1 -1 sc (15) dup sw pop 2 div neg 0 rm  col0 sh gr
/NimbusSanL-Regu ff 135.00 scf sf
3700 9310 m
gs 1 -1 sc (20) dup sw pop 2 div neg 0 rm  col0 sh gr
/NimbusSanL-Regu ff 135.00 scf sf
4450 9310 m
gs 1 -1 sc (25) dup sw pop 2 div neg 0 rm  col0 sh gr
/NimbusSanL-Regu ff 135.00 scf sf
5200 9310 m
gs 1 -1 sc (30) dup sw pop 2 div neg 0 rm  col0 sh gr
/NimbusSanL-Regu ff 135.00 scf sf
5950 9310 m
gs 1 -1 sc (35) dup sw pop 2 div neg 0 rm  col0 sh gr
/NimbusSanL-Regu ff 135.00 scf sf
6700 9310 m
gs 1 -1 sc (40) dup sw pop 2 div neg 0 rm  col0 sh gr
/NimbusSanL-Regu ff 135.00 scf sf
7450 9310 m
gs 1 -1 sc (45) dup sw pop 2 div neg 0 rm  col0 sh gr
/NimbusSanL-Regu ff 127.50 scf sf
670 5060 m
gs 1 -1 sc (CPU  1) dup sw pop neg 0 rm  col0 sh gr
/NimbusSanL-Regu ff 127.50 scf sf
670 5330 m
gs 1 -1 sc (CPU  2) dup sw pop neg 0 rm  col0 sh gr
/NimbusSanL-Regu ff 127.50 scf sf
670 5600 m
gs 1 -1 sc (CPU  3) dup sw pop neg 0 rm  col0 sh gr
/NimbusSanL-Regu ff 127.50 scf sf
670 5870 m
gs 1 -1 sc (CPU  4) dup sw pop neg 0 rm  col0 sh gr
/NimbusSanL-Regu ff 127.50 scf sf
670 6140 m
gs 1 -1 sc (CPU  5) dup sw pop neg 0 rm  col0 sh gr
/NimbusSanL-Regu ff 127.50 scf sf
670 6410 m
gs 1 -1 sc (CPU  6) dup sw pop neg 0 rm  col0 sh gr
/NimbusSanL-Regu ff 127.50 scf sf
670 6680 m
gs 1 -1 sc (CPU  7) dup sw pop neg 0 rm  col0 sh gr
/NimbusSanL-Regu ff 127.50 scf sf
670 6950 m
gs 1 -1 sc (CPU  8) dup sw pop neg 0 rm  col0 sh gr
/NimbusSanL-Regu ff 127.50 scf sf
670 7220 m
gs 1 -1 sc (CPU  9) dup sw pop neg 0 rm  col0 sh gr
/NimbusSanL-Regu ff 127.50 scf sf
670 7490 m
gs 1 -1 sc (CPU 10) dup sw pop neg 0 rm  col0 sh gr
/NimbusSanL-Regu ff 127.50 scf sf
670 7760 m
gs 1 -1 sc (CPU 11) dup sw pop neg 0 rm  col0 sh gr
/NimbusSanL-Regu ff 127.50 scf sf
670 8030 m
gs 1 -1 sc (CPU 12) dup sw pop neg 0 rm  col0 sh gr
/NimbusSanL-Regu ff 127.50 scf sf
670 8300 m
gs 1 -1 sc (CPU 13) dup sw pop neg 0 rm  col0 sh gr
/NimbusSanL-Regu ff 127.50 scf sf
670 8570 m
gs 1 -1 sc (CPU 14) dup sw pop neg 0 rm  col0 sh gr
/NimbusSanL-Regu ff 127.50 scf sf
670 8840 m
gs 1 -1 sc (CPU 15) dup sw pop neg 0 rm  col0 sh gr
% here ends figure;
pagefooter
showpage
%%Trailer
%EOF

%%EndDocument
 @endspecial Black Black eop end
%%Trailer

userdict /end-hook known{end-hook}if
%%EOF
